stn_code,mrt_station_english,mrt_station_chinese,mrt_line_english,mrt_line_chinese,LRT,lat,long,MRT_ADDRESS
NS1,Jurong East,裕廊东,North South Line,南北线,False,1.33315261987296,103.742286544006,10 JURONG EAST STREET 12 JURONG EAST MRT STATION SINGAPORE 609690
NS2,Bukit Batok,武吉巴督,North South Line,南北线,False,1.3490341085881201,103.74956676412901,10 BUKIT BATOK CENTRAL BUKIT BATOK MRT STATION SINGAPORE 659958
NS3,Bukit Gombak,武吉甘柏,North South Line,南北线,False,1.3586115909419298,103.75179091073299,802 BUKIT BATOK WEST AVENUE 5 BUKIT GOMBAK MRT STATION SINGAPORE 659083
NS4,Choa Chu Kang,蔡厝港,North South Line,南北线,False,1.38536316540227,103.744370779756,10 CHOA CHU KANG AVENUE 4 CHOA CHU KANG MRT STATION SINGAPORE 689810
NS5,Yew Tee,油池,North South Line,南北线,False,1.3975350176262302,103.74740511433599,61 CHOA CHU KANG DRIVE YEW TEE MRT STATION SINGAPORE 689715
NS7,Kranji,克兰芝,North South Line,南北线,False,1.4250869807364899,103.762137459497,960 WOODLANDS ROAD KRANJI MRT STATION SINGAPORE 738702
NS8,Marsiling,马西岭,North South Line,南北线,False,1.43252114855028,103.774074641403,71 WOODLANDS AVENUE 3 MARSILING MRT STATION SINGAPORE 739044
NS9,Woodlands,兀兰,North South Line,南北线,False,1.43681962961519,103.786066799253,30 WOODLANDS AVENUE 2 WOODLANDS MRT STATION SINGAPORE 738343
NS10,Admiralty,海军部,North South Line,南北线,False,1.4405850008685201,103.80098800040301,70 WOODLANDS AVENUE 7 ADMIRALTY MRT STATION SINGAPORE 738344
NS11,Sembawang,三巴旺,North South Line,南北线,False,1.44905082158503,103.82004614021099,11 CANBERRA ROAD SEMBAWANG MRT STATION SINGAPORE 759775
NS13,Yishun,义顺,North South Line,南北线,False,1.42944308039361,103.83500504643,301 YISHUN AVENUE 2 YISHUN MRT STATION SINGAPORE 769093
NS14,Khatib,卡迪,North South Line,南北线,False,1.4173833700956597,103.832979908243,201 YISHUN AVENUE 2 KHATIB MRT STATION SINGAPORE 769092
NS15,Yio Chu Kang,杨厝港,North South Line,南北线,False,1.38175588659405,103.84494728205999,3000 ANG MO KIO AVENUE 8 YIO CHU KANG MRT STATION SINGAPORE 569813
NS16,Ang Mo Kio,宏茂桥,North South Line,南北线,False,1.3699331753644401,103.849558130943,2450 ANG MO KIO AVENUE 8 ANG MO KIO MRT STATION SINGAPORE 569811
NS17,Bishan,碧山,North South Line,南北线,False,1.3508389878474,103.848143964542,200 BISHAN ROAD BISHAN MRT STATION SINGAPORE 579827
NS18,Braddell,布莱德,North South Line,南北线,False,1.34046900102773,103.846799083148,377 LORONG 1 TOA PAYOH BRADDELL MRT STATION SINGAPORE 319756
NS19,Toa Payoh,大巴窑,North South Line,南北线,False,1.3326289875297301,103.847501764246,510 LORONG 6 TOA PAYOH TOA PAYOH MRT STATION SINGAPORE 319398
NS20,Novena,诺维娜,North South Line,南北线,False,1.32044079120158,103.843825618748,250 THOMSON ROAD NOVENA MRT STATION SINGAPORE 307642
NS21,Newton,纽顿,North South Line,南北线,False,1.3123200994601298,103.83798529952101,49 SCOTTS ROAD NEWTON MRT STATION SINGAPORE 228234
NS22,Orchard,乌节,North South Line,南北线,False,1.30397987430725,103.83224529985701,437 ORCHARD ROAD ORCHARD MRT STATION SINGAPORE 238878
NS23,Somerset,索美塞,North South Line,南北线,False,1.3002641673900701,103.83908575312401,1 SOMERSET ROAD SOMERSET MRT STATION SINGAPORE 238162
NS24,Dhoby Ghaut,多美歌,North South Line,南北线,False,1.29870130619238,103.846115155028,11 ORCHARD ROAD DHOBY GHAUT MRT STATION SINGAPORE 238826
NS25,City Hall,政府大厦,North South Line,南北线,False,1.29293624242152,103.85258589204099,150 NORTH BRIDGE ROAD CITY HALL MRT STATION SINGAPORE 179100
NS26,Raffles Place,莱佛士坊,North South Line,南北线,False,1.2841256104365901,103.851461712342,5 RAFFLES PLACE RAFFLES PLACE MRT STATION SINGAPORE 048618
NS27,Marina Bay,滨海湾,North South Line,南北线,False,1.2764092632251103,103.854595266332,21 PARK STREET MARINA BAY MRT STATION SINGAPORE 018925
NS28,Marina South Pier,滨海南码头,North South Line,南北线,False,1.2710270361201002,103.86244751573601,33 MARINA COASTAL DRIVE MARINA SOUTH PIER MRT STATION SINGAPORE 018948
EW1,Pasir Ris,巴西立,East West Line,东西线,False,1.37304321206226,103.949284605816,10 PASIR RIS CENTRAL PASIR RIS MRT STATION SINGAPORE 519634
EW2,Tampines,淡滨尼,East West Line,东西线,False,1.3533015326595301,103.945144689278,20 TAMPINES CENTRAL 1 TAMPINES MRT STATION SINGAPORE 529538
EW3,Simei,四美,East West Line,东西线,False,1.34320289478118,103.953371694102,30 SIMEI STREET 3 SIMEI MRT STATION SINGAPORE 529888
EW4,Tanah Merah,丹那美拉,East West Line,东西线,False,1.32718709366102,103.94634856624799,920 NEW UPPER CHANGI ROAD TANAH MERAH MRT STATION SINGAPORE 467356
EW5,Bedok,勿洛,East West Line,东西线,False,1.32397996868159,103.929984495066,315 NEW UPPER CHANGI ROAD BEDOK MRT STATION SINGAPORE 467347
EW6,Kembangan,景万岸,East West Line,东西线,False,1.3210382485141399,103.912949388089,55 SIMS AVENUE EAST KEMBANGAN MRT STATION SINGAPORE 416551
EW7,Eunos,友诺士,East West Line,东西线,False,1.31978354779207,103.903225812967,30 EUNOS CRESCENT EUNOS MRT STATION SINGAPORE 409423
EW8,Paya Lebar,巴耶利峇,East West Line,东西线,False,1.31811208187581,103.893060355199,30 PAYA LEBAR ROAD PAYA LEBAR MRT STATION SINGAPORE 409006
EW9,Aljunied,阿裕尼,East West Line,东西线,False,1.31643261181572,103.882906044385,81 LORONG 25 GEYLANG ALJUNIED MRT STATION SINGAPORE 388310
EW10,Kallang,加冷,East West Line,东西线,False,1.3114889099882099,103.87138654175399,5 SIMS AVENUE KALLANG MRT STATION SINGAPORE 387405
EW11,Lavender,劳明达,East West Line,东西线,False,1.3073775084261599,103.86276763361201,50 KALLANG ROAD LAVENDER MRT STATION SINGAPORE 208699
EW12,Bugis,武吉士,East West Line,东西线,False,1.30046507606682,103.855706414086,220 VICTORIA STREET BUGIS MRT STATION SINGAPORE 188022
EW13,City Hall,政府大厦,East West Line,东西线,False,1.29293624242152,103.85258589204099,150 NORTH BRIDGE ROAD CITY HALL MRT STATION SINGAPORE 179100
EW14,Raffles Place,莱佛士坊,East West Line,东西线,False,1.2841256104365901,103.851461712342,5 RAFFLES PLACE RAFFLES PLACE MRT STATION SINGAPORE 048618
EW15,Tanjong Pagar,丹戎巴葛,East West Line,东西线,False,1.2765613173725,103.845725186759,120 MAXWELL ROAD TANJONG PAGAR MRT STATION SINGAPORE 069119
EW16,Outram Park,欧南园,East West Line,东西线,False,1.28140504772214,103.839130979249,10 OUTRAM ROAD OUTRAM PARK MRT STATION SINGAPORE 169037
EW17,Tiong Bahru,中峇鲁,East West Line,东西线,False,1.28610253615776,103.827445112419,300 TIONG BAHRU ROAD TIONG BAHRU MRT STATION SINGAPORE 168731
EW18,Redhill,红山,East West Line,东西线,False,1.2896345335814,103.816740969874,920 TIONG BAHRU ROAD REDHILL MRT STATION SINGAPORE 158792
EW19,Queenstown,女皇镇,East West Line,东西线,False,1.29455085184932,103.806077155982,301 COMMONWEALTH AVENUE QUEENSTOWN MRT STATION SINGAPORE 149729
EW20,Commonwealth,联邦,East West Line,东西线,False,1.3025085370470701,103.798226128263,375 COMMONWEALTH AVENUE COMMONWEALTH MRT STATION SINGAPORE 149735
EW21,Buona Vista,波那维斯达,East West Line,东西线,False,1.30722370820442,103.790253514502,100 NORTH BUONA VISTA ROAD BUONA VISTA MRT STATION SINGAPORE 139345
EW22,Dover,杜弗,East West Line,东西线,False,1.3114052932096398,103.778637841909,200 COMMONWEALTH AVENUE WEST DOVER MRT STATION SINGAPORE 138677
EW23,Clementi,金文泰,East West Line,东西线,False,1.3152012635207901,103.76518244664699,3150 COMMONWEALTH AVENUE WEST CLEMENTI MRT STATION SINGAPORE 129580
EW24,Jurong East,裕廊东,East West Line,东西线,False,1.33315261987296,103.742286544006,10 JURONG EAST STREET 12 JURONG EAST MRT STATION SINGAPORE 609690
EW25,Chinese Garden,裕华园,East West Line,东西线,False,1.34235282081402,103.732596738363,151 BOON LAY WAY CHINESE GARDEN MRT STATION SINGAPORE 609959
EW26,Lakeside,湖畔,East West Line,东西线,False,1.34425913054044,103.720949076305,201 BOON LAY WAY LAKESIDE MRT STATION SINGAPORE 649845
EW27,Boon Lay,文礼,East West Line,东西线,False,1.3386040546984599,103.706064622772,301 BOON LAY WAY BOON LAY MRT STATION SINGAPORE 649846
EW28,Pioneer,先驱,East West Line,东西线,False,1.3375868824076698,103.697321513018,31 JURONG WEST STREET 63 PIONEER MRT STATION SINGAPORE 648310
EW29,Joo Koon,裕群,East West Line,东西线,False,1.32771717334029,103.67837514383801,91 JOO KOON CIRCLE JOO KOON MRT STATION SINGAPORE 629116
EW30,Gul Circle,卡尔圈 站,East West Line,东西线,False,1.319470868174,103.66053040341801,7A TUAS ROAD GUL CIRCLE MRT STATION SINGAPORE 637288
EW31,Tuas Crescent,大士弯站,East West Line,东西线,False,1.3210269559868602,103.649078235627,90 PIONEER ROAD TUAS CRESCENT MRT STATION SINGAPORE 639608
EW32,Tuas West Road,大 士 西 路站,East West Line,东西线,False,1.32998908906459,103.63961405628,131 PIONEER ROAD TUAS WEST ROAD MRT STATION SINGAPORE 639609
EW33,Tuas Link,大士连路站,East West Line,东西线,False,1.3408824245110702,103.636991425128,20 TUAS WEST DRIVE TUAS LINK MRT STATION SINGAPORE 638418
CG1,Expo,博览,Changi Airport Branch Line,樟宜机场支线,False,1.33454977824817,103.96154821101801,21 CHANGI SOUTH AVENUE 1 EXPO MRT STATION SINGAPORE 486065
CG2,Changi Airport,樟宜机场,Changi Airport Branch Line,樟宜机场支线,False,1.35747897447696,103.98788356959,70 AIRPORT BOULEVARD CHANGI AIRPORT MRT STATION SINGAPORE 819661
NE1,HarbourFront,港湾,North East Line,东北线,False,1.26538938402275,103.821530156823,81 TELOK BLANGAH ROAD HARBOURFRONT MRT STATION SINGAPORE 098867
NE3,Outram Park,欧南园,North East Line,东北线,False,1.27972059383557,103.83943986242501,300 EU TONG SEN STREET OUTRAM PARK MRT STATION SINGAPORE 059816
NE4,Chinatown,牛车水,North East Line,东北线,False,1.2843595780038999,103.843426775693,151 NEW BRIDGE ROAD CHINATOWN MRT STATION SINGAPORE 059443
NE5,Clarke Quay,克拉码头,North East Line,东北线,False,1.28838602407588,103.846555209694,10 EU TONG SEN STREET CLARKE QUAY MRT STATION SINGAPORE 059815
NE6,Dhoby Ghaut,多美歌,North East Line,东北线,False,1.299705458528,103.845488184359,60 ORCHARD ROAD DHOBY GHAUT MRT STATION SINGAPORE 238889
NE7,Little India,小印度,North East Line,东北线,False,1.3068000256055399,103.84964696645001,60 BUKIT TIMAH ROAD LITTLE INDIA MRT STATION SINGAPORE 229900
NE8,Farrer Park,花拉公园,North East Line,东北线,False,1.31190557325775,103.853477716509,250 RACE COURSE ROAD FARRER PARK MRT STATION SINGAPORE 218703
NE9,Boon Keng,文庆,North East Line,东北线,False,1.3193357092251399,103.861569454156,900 SERANGOON ROAD BOON KENG MRT STATION SINGAPORE 328260
NE10,Potong Pasir,波东巴西,North East Line,东北线,False,1.3313795249776201,103.869055665485,55 UPPER SERANGOON ROAD POTONG PASIR MRT STATION SINGAPORE 347694
NE11,Woodleigh,兀里,North East Line,东北线,False,1.3391900451939098,103.87081830915001,400 UPPER SERANGOON ROAD WOODLEIGH MRT STATION SINGAPORE 347695
NE12,Serangoon,实龙岗,North East Line,东北线,False,1.34970787487358,103.873574846893,600 UPPER SERANGOON ROAD SERANGOON MRT STATION SINGAPORE 534801
NE13,Kovan,高文,North East Line,东北线,False,1.36017917065238,103.885064856353,900 UPPER SERANGOON ROAD KOVAN MRT STATION SINGAPORE 534799
NE14,Hougang,后港,North East Line,东北线,False,1.37129229221245,103.89238051874099,80 HOUGANG CENTRAL HOUGANG MRT STATION SINGAPORE 538758
NE15,Buangkok,万国,North East Line,东北线,False,1.3828778583505499,103.89312156439101,10 SENGKANG CENTRAL BUANGKOK MRT STATION SINGAPORE 545061
NE16,Sengkang,盛港,North East Line,东北线,False,1.39169462601522,103.895484694279,5 SENGKANG SQUARE SENGKANG MRT STATION SINGAPORE 545062
NE17,Punggol,榜鹅,North East Line,东北线,False,1.4045467274810601,103.902072638825,70 PUNGGOL CENTRAL PUNGGOL MRT STATION SINGAPORE 828868
CC1,Dhoby Ghaut,多美歌,Circle Line,环线,False,1.29881040867145,103.84634759341999,13 ORCHARD ROAD DHOBY GHAUT MRT STATION SINGAPORE 238893
CC2,Bras Basah,百胜,Circle Line,环线,False,1.29686168649657,103.850667371637,65 BRAS BASAH ROAD BRAS BASAH MRT STATION SINGAPORE 189561
CC3,Esplanade,滨海中心,Circle Line,环线,False,1.29365772453862,103.855081226245,90 BRAS BASAH ROAD ESPLANADE MRT STATION SINGAPORE 189562
CC4,Promenade,宝门廊,Circle Line,环线,False,1.2939985691398401,103.86035000019501,2 TEMASEK AVENUE PROMENADE MRT STATION SINGAPORE 039193
CC5,Nicoll Highway,尼诰大道,Circle Line,环线,False,1.29976683498023,103.863637018754,20 REPUBLIC AVENUE NICOLL HIGHWAY MRT STATION SINGAPORE 038970
CC6,Stadium,体育场,Circle Line,环线,False,1.30281246847073,103.875337711089,3 STADIUM WALK STADIUM MRT STATION SINGAPORE 397692
CC7,Mountbatten,蒙巴登,Circle Line,环线,False,1.30620190525333,103.882528081052,301 MOUNTBATTEN ROAD MOUNTBATTEN MRT STATION SINGAPORE 398006
CC8,Dakota,达科达,Circle Line,环线,False,1.30854798388123,103.889064718377,201 OLD AIRPORT ROAD DAKOTA MRT STATION SINGAPORE 397973
CC9,Paya Lebar,巴耶利峇,Circle Line,环线,False,1.3172473854035,103.89226075388399,15 PAYA LEBAR ROAD PAYA LEBAR MRT STATION SINGAPORE 409049
CC10,MacPherson,麦波申,Circle Line,环线,False,1.32607760171666,103.890391305725,171 PAYA LEBAR ROAD MACPHERSON MRT STATION SINGAPORE 409048
CC11,Tai Seng,大成,Circle Line,环线,False,1.33514150139205,103.88838930019101,33 UPPER PAYA LEBAR ROAD TAI SENG MRT STATION SINGAPORE 534803
CC12,Bartley,巴特礼,Circle Line,环线,False,1.3425011780524498,103.88017789918399,90 BARTLEY ROAD BARTLEY MRT STATION SINGAPORE 539788
CC13,Serangoon,实龙岗,Circle Line,环线,False,1.3506336152652902,103.872771660431,21 SERANGOON CENTRAL SERANGOON MRT STATION SINGAPORE 556082
CC14,Lorong Chuan,罗弄泉,Circle Line,环线,False,1.35161217074559,103.864151938651,150 SERANGOON AVENUE 3 LORONG CHUAN MRT STATION SINGAPORE 554533
CC15,Bishan,碧山,Circle Line,环线,False,1.3513086799396001,103.84915441868799,17 BISHAN PLACE BISHAN MRT STATION SINGAPORE 579842
CC16,Marymount,玛丽蒙,Circle Line,环线,False,1.34870726345101,103.839423132332,60 MARYMOUNT ROAD MARYMOUNT MRT STATION SINGAPORE 573993
CC17,Caldecott,加利谷,Circle Line,环线,False,1.33767450815621,103.839529820338,38 TOA PAYOH RISE CALDECOTT MRT STATION SINGAPORE 298113
CC19,Botanic Gardens,植物园,Circle Line,环线,False,1.32211373558877,103.814984510627,100 CLUNY PARK ROAD BOTANIC GARDENS MRT STATION SINGAPORE 257494
CC20,Farrer Road,花拉路,Circle Line,环线,False,1.3174391515897,103.80737921416099,71 FARRER ROAD FARRER ROAD MRT STATION SINGAPORE 268857
CC21,Holland Village,荷兰村,Circle Line,环线,False,1.31224029631598,103.796399122407,200 HOLLAND AVENUE HOLLAND VILLAGE MRT STATION SINGAPORE 278995
CC22,Buona Vista,波那维斯达,Circle Line,环线,False,1.30663450405002,103.790709404436,150 NORTH BUONA VISTA ROAD BUONA VISTA MRT STATION SINGAPORE 139350
CC23,one-north,纬壹,Circle Line,环线,False,1.29975987849415,103.78745750796999,9 AYER RAJAH AVENUE ONE-NORTH MRT STATION SINGAPORE 138647
CC24,Kent Ridge,肯特岗,Circle Line,环线,False,1.29353698622126,103.784572366595,301 SOUTH BUONA VISTA ROAD KENT RIDGE MRT STATION SINGAPORE 118177
CC25,Haw Par Villa,虎豹别墅,Circle Line,环线,False,1.2825713582723701,103.781752724792,270 PASIR PANJANG ROAD HAW PAR VILLA MRT STATION SINGAPORE 117396
CC26,Pasir Panjang,巴西班让,Circle Line,环线,False,1.2762135223376698,103.791350313288,119 PASIR PANJANG ROAD PASIR PANJANG MRT STATION SINGAPORE 117424
CC27,Labrador Park,拉柏多公园,Circle Line,环线,False,1.2722541774965601,103.802631578766,701 TELOK BLANGAH ROAD LABRADOR PARK MRT STATION SINGAPORE 109029
CC28,Telok Blangah,直落布兰雅,Circle Line,环线,False,1.27070647717763,103.809761611219,463 TELOK BLANGAH ROAD TELOK BLANGAH MRT STATION SINGAPORE 109028
CC29,HarbourFront,港湾,Circle Line,环线,False,1.26538938402275,103.821530156823,81 TELOK BLANGAH ROAD HARBOURFRONT MRT STATION SINGAPORE 098867
CE1,Bayfront,海湾舫,Circle Line Extension,环线延长线,False,1.2818737887921001,103.859079764874,11 BAYFRONT AVENUE BAYFRONT MRT STATION SINGAPORE 018957
CE2,Marina Bay,滨海湾,Circle Line Extension,环线延长线,False,1.2762514642374498,103.855447156279,23 PARK STREET MARINA BAY MRT STATION SINGAPORE 018926
DT1,Bukit Panjang,武吉班让,Downtown Line,滨海市区线,False,1.3790021164103898,103.761535114929,950 UPPER BUKIT TIMAH ROAD BUKIT PANJANG MRT STATION SINGAPORE 678213
DT2,Cashew,凯秀,Downtown Line,滨海市区线,False,1.3698154492555499,103.76443921414,1 CASHEW ROAD CASHEW MRT STATION SINGAPORE 679696
DT3,Hillview,山景,Downtown Line,滨海市区线,False,1.36234486803559,103.767418254007,510 UPPER BUKIT TIMAH ROAD HILLVIEW MRT STATION SINGAPORE 678211
DT5,Beauty World,美世界,Downtown Line,滨海市区线,False,1.34122321089643,103.775794258972,101 UPPER BUKIT TIMAH ROAD BEAUTY WORLD MRT STATION SINGAPORE 588216
DT6,King Albert Park,阿尔柏王园,Downtown Line,滨海市区线,False,1.3356627622999298,103.78339911341801,2 BLACKMORE DRIVE KING ALBERT PARK MRT STATION SINGAPORE 599987
DT7,Sixth Avenue,第六道,Downtown Line,滨海市区线,False,1.33085764536228,103.796906838288,777 BUKIT TIMAH ROAD SIXTH AVENUE MRT STATION SINGAPORE 269784
DT8,Tan Kah Kee,陈嘉庚,Downtown Line,滨海市区线,False,1.32555623519898,103.807760304729,651 BUKIT TIMAH ROAD TAN KAH KEE MRT STATION SINGAPORE 266268
DT9,Botanic Gardens,植物园,Downtown Line,滨海市区线,False,1.32248807089545,103.816013994259,491 BUKIT TIMAH ROAD BOTANIC GARDENS MRT STATION SINGAPORE 259777
DT10,Stevens,史蒂芬,Downtown Line,滨海市区线,False,1.3200655575062699,103.826024401924,92 STEVENS ROAD STEVENS MRT STATION SINGAPORE 257877
DT11,Newton,纽顿,Downtown Line,滨海市区线,False,1.31399286264572,103.837714613091,235 BUKIT TIMAH ROAD NEWTON MRT STATION SINGAPORE 229901
DT12,Little India,小印度,Downtown Line,滨海市区线,False,1.3070182676522601,103.84866093509198,62 BUKIT TIMAH ROAD LITTLE INDIA MRT STATION SINGAPORE 229902
DT13,Rochor,梧槽,Downtown Line,滨海市区线,False,1.30385218527656,103.85276942888399,11 ROCHOR CANAL ROAD ROCHOR MRT STATION SINGAPORE 188505
DT14,Bugis,武吉士,Downtown Line,滨海市区线,False,1.2993135039932902,103.857125958751,191 ROCHOR ROAD BUGIS MRT STATION SINGAPORE 188476
DT15,Promenade,宝门廊,Downtown Line,滨海市区线,False,1.29289175383296,103.860891800025,10 TEMASEK AVENUE PROMENADE MRT STATION SINGAPORE 039194
DT16,Bayfront,海湾舫,Downtown Line,滨海市区线,False,1.2818737887921001,103.859079764874,11 BAYFRONT AVENUE BAYFRONT MRT STATION SINGAPORE 018957
DT17,Downtown,市中心,Downtown Line,滨海市区线,False,1.27944619017901,103.852840444471,15 CENTRAL BOULEVARD DOWNTOWN MRT STATION SINGAPORE 018969
DT18,Telok Ayer,直落亚逸,Downtown Line,滨海市区线,False,1.28206894769396,103.84864878108299,7 CROSS STREET TELOK AYER MRT STATION SINGAPORE 048416
DT19,Chinatown,牛车水,Downtown Line,滨海市区线,False,1.28422391919087,103.845143798953,91 UPPER CROSS STREET CHINATOWN MRT STATION SINGAPORE 058362
DT20,Fort Canning,福康宁,Downtown Line,滨海市区线,False,1.29248123652548,103.844331060302,170 RIVER VALLEY ROAD FORT CANNING MRT STATION SINGAPORE 179038
DT21,Bencoolen,明古连,Downtown Line,滨海市区线,False,1.29891843369425,103.850353762717,31 BENCOOLEN STREET BENCOOLEN MRT STATION SINGAPORE 189658
DT22,Jalan Besar,惹兰勿刹,Downtown Line,滨海市区线,False,1.30517138780691,103.855295713435,90 JALAN BESAR JALAN BESAR MRT STATION SINGAPORE 208826
DT23,Bendemeer,明地迷亚,Downtown Line,滨海市区线,False,1.31367252847692,103.862977620945,11 KALLANG BAHRU BENDEMEER MRT STATION SINGAPORE 339356
DT24,Geylang Bahru,芽笼峇鲁,Downtown Line,滨海市区线,False,1.32130110228323,103.87162262714199,541 KALLANG BAHRU GEYLANG BAHRU MRT STATION SINGAPORE 339355
DT25,Mattar,玛达,Downtown Line,滨海市区线,False,1.32687671501336,103.883247509542,60 MERPATI ROAD MATTAR MRT STATION SINGAPORE 379314
DT26,MacPherson,麦波申,Downtown Line,滨海市区线,False,1.32615024293133,103.88929859602399,10 CIRCUIT LINK MACPHERSON MRT STATION SINGAPORE 378956
DT27,Ubi,乌美,Downtown Line,滨海市区线,False,1.3299746290052,103.89922665544901,51 UBI AVENUE 2 UBI MRT STATION SINGAPORE 408899
DT28,Kaki Bukit,加基武吉,Downtown Line,滨海市区线,False,1.33496730163705,103.908459734312,30 KAKI BUKIT AVENUE 1 KAKI BUKIT MRT STATION SINGAPORE 415804
DT29,Bedok North,勿洛北,Downtown Line,滨海市区线,False,1.33474211664093,103.91797832995,651 BEDOK NORTH ROAD BEDOK NORTH MRT STATION SINGAPORE 479481
DT30,Bedok Reservoir,勿洛蓄水池,Downtown Line,滨海市区线,False,1.33660782955101,103.93223462328599,371 BEDOK NORTH AVENUE 3 BEDOK RESERVOIR MRT STATION SINGAPORE 469724
DT31,Tampines West,淡滨尼西,Downtown Line,滨海市区线,False,1.3455153056012,103.938436971222,2 TAMPINES AVENUE 4 TAMPINES WEST MRT STATION SINGAPORE 529683
DT32,Tampines,淡滨尼,Downtown Line,滨海市区线,False,1.35515041120473,103.94300988313101,15 TAMPINES CENTRAL 1 TAMPINES MRT STATION SINGAPORE 529544
DT33,Tampines East,淡滨尼东,Downtown Line,滨海市区线,False,1.35619148271548,103.9546344625,20 TAMPINES AVENUE 7 TAMPINES EAST MRT STATION SINGAPORE 529623
DT34,Upper Changi,樟宜上段,Downtown Line,滨海市区线,False,1.3417397843135,103.961472614026,690 UPPER CHANGI ROAD EAST UPPER CHANGI MRT STATION SINGAPORE 485990
DT35,Expo,博览,Downtown Line,滨海市区线,False,1.33538252614957,103.962374747451,2 EXPO DRIVE EXPO MRT STATION SINGAPORE 485985
BP1,Choa Chu Kang,蔡厝港,Bukit Panjang LRT,武吉班让轻轨线,True,1.38475541089132,103.74453769781,15 CHOA CHU KANG AVENUE 4 CHOA CHU KANG LRT STATION SINGAPORE 689813
BP2,South View,南山,Bukit Panjang LRT,武吉班让轻轨线,True,1.380298287424,103.745291799824,50 CHOA CHU KANG WAY SOUTH VIEW LRT STATION SINGAPORE 688265
BP3,Keat Hong,吉丰,Bukit Panjang LRT,武吉班让轻轨线,True,1.37860276612542,103.749055519081,30 CHOA CHU KANG WAY KEAT HONG LRT STATION SINGAPORE 688266
BP4,Teck Whye,德惠,Bukit Panjang LRT,武吉班让轻轨线,True,1.3766846792081002,103.753712232337,10 CHOA CHU KANG WAY TECK WHYE LRT STATION SINGAPORE 688267
BP5,Phoenix,凤凰,Bukit Panjang LRT,武吉班让轻轨线,True,1.3786154510408402,103.75799555834601,40 CHOA CHU KANG ROAD PHOENIX LRT STATION SINGAPORE 689483
BP6,Bukit Panjang,武吉班让,Bukit Panjang LRT,武吉班让轻轨线,True,1.37792612935448,103.763103024153,11 PETIR ROAD BUKIT PANJANG LRT STATION SINGAPORE 678268
BP7,Petir,柏提,Bukit Panjang LRT,武吉班让轻轨线,True,1.37777204259083,103.76664578249701,31 PETIR ROAD PETIR LRT STATION SINGAPORE 678269
BP8,Pending,秉定,Bukit Panjang LRT,武吉班让轻轨线,True,1.3761357433498898,103.771261175571,9 PENDING ROAD PENDING LRT STATION SINGAPORE 678296
BP9,Bangkit,万吉,Bukit Panjang LRT,武吉班让轻轨线,True,1.38002223010088,103.772647370452,20 BUKIT PANJANG RING ROAD BANGKIT LRT STATION SINGAPORE 679939
BP10,Fajar,法嘉,Bukit Panjang LRT,武吉班让轻轨线,True,1.38457317668028,103.770887223018,40 FAJAR ROAD FAJAR LRT STATION SINGAPORE 679004
BP11,Segar,实加,Bukit Panjang LRT,武吉班让轻轨线,True,1.3877850866336499,103.769599685249,50 BUKIT PANJANG RING ROAD SEGAR LRT STATION SINGAPORE 679940
BP12,Jelapang,泽拉邦,Bukit Panjang LRT,武吉班让轻轨线,True,1.3867362567036203,103.764533143861,70 BUKIT PANJANG RING ROAD JELAPANG LRT STATION SINGAPORE 679941
BP13,Senja,信佳,Bukit Panjang LRT,武吉班让轻轨线,True,1.38272547134454,103.76234425472,90 BUKIT PANJANG RING ROAD SENJA LRT STATION SINGAPORE 679942
STC,Sengkang,盛港,Sengkang LRT,盛港轻轨线,True,1.39160936379907,103.89544258333599,5 SENGKANG SQUARE SENGKANG LRT STATION SINGAPORE 545062
SE1,Compassvale,康埔桦,Sengkang LRT,盛港轻轨线,True,1.3944930461461398,103.900492450944,10 COMPASSVALE STREET COMPASSVALE LRT STATION SINGAPORE 545055
SE2,Rumbia,棕美,Sengkang LRT,盛港轻轨线,True,1.3914684967099398,103.905973595042,70 RIVERVALE DRIVE RUMBIA LRT STATION SINGAPORE 545054
SE3,Bakau,码高,Sengkang LRT,盛港轻轨线,True,1.38799293453418,103.9054139919,50 RIVERVALE DRIVE BAKAU LRT STATION SINGAPORE 545053
SE4,Kangkar,港脚,Sengkang LRT,盛港轻轨线,True,1.3839591146993,103.90222537044001,20 RIVERVALE DRIVE KANGKAR LRT STATION SINGAPORE 545052
SE5,Ranggung,兰岗,Sengkang LRT,盛港轻轨线,True,1.3842335605513998,103.89719466943599,30 SENGKANG EAST AVENUE RANGGUNG LRT STATION SINGAPORE 545046
SW1,Cheng Lim,振林,Sengkang LRT,盛港轻轨线,True,1.39627763152713,103.89379718091499,5 ANCHORVALE STREET CHENG LIM LRT STATION SINGAPORE 545047
SW2,Farmway,农道,Sengkang LRT,盛港轻轨线,True,1.39717019646604,103.889304810053,35 ANCHORVALE STREET FARMWAY LRT STATION SINGAPORE 545048
SW3,Kupang,古邦,Sengkang LRT,盛港轻轨线,True,1.3982128283976698,103.881256221983,60 FERNVALE STREET KUPANG LRT STATION SINGAPORE 797697
SW4,Thanggam,丹甘,Sengkang LRT,盛港轻轨线,True,1.3973181555456298,103.875635156633,40 FERNVALE ROAD THANGGAM LRT STATION SINGAPORE 797699
SW5,Fernvale,芬微,Sengkang LRT,盛港轻轨线,True,1.3918858876944802,103.876308611649,10 FERNVALE ROAD FERNVALE LRT STATION SINGAPORE 797698
SW6,Layar,拉雅,Sengkang LRT,盛港轻轨线,True,1.39207983851612,103.880029600818,11 SENGKANG WEST AVENUE LAYAR LRT STATION SINGAPORE 797700
SW7,Tongkang,同港,Sengkang LRT,盛港轻轨线,True,1.38934795343274,103.885844149844,80 SENGKANG EAST AVENUE TONGKANG LRT STATION SINGAPORE 545050
SW8,Renjong,仁宗,Sengkang LRT,盛港轻轨线,True,1.38672392187266,103.890539426996,60 SENGKANG EAST AVENUE RENJONG LRT STATION SINGAPORE 545049
PTC,Punggol,榜鹅,Punggol LRT,榜鹅轻轨线,True,1.33366278746236,103.839122371999,510 THOMSON ROAD PUBLIC TRANSPORT COUNCIL (PTC) SINGAPORE 298135
PE1,Cove,海湾,Punggol LRT,榜鹅轻轨线,True,1.3992819848148101,103.905961943934,50 PUNGGOL FIELD COVE LRT STATION SINGAPORE 828858
PE2,Meridian,丽园,Punggol LRT,榜鹅轻轨线,True,1.39691205316247,103.908950216874,60 PUNGGOL FIELD MERIDIAN LRT STATION SINGAPORE 828857
PE3,Coral Edge,珊瑚,Punggol LRT,榜鹅轻轨线,True,1.3939092261692398,103.91258085503401,70 PUNGGOL FIELD CORAL EDGE LRT STATION SINGAPORE 828856
PE4,Riviera,里维拉,Punggol LRT,榜鹅轻轨线,True,1.39452449590887,103.916166058794,40 PUNGGOL EAST RIVIERA LRT STATION SINGAPORE 828852
PE5,Kadaloor,卡达鲁,Punggol LRT,榜鹅轻轨线,True,1.39950911293252,103.91657496498699,60 PUNGGOL DRIVE KADALOOR LRT STATION SINGAPORE 828853
PE6,Oasis,绿洲,Punggol LRT,榜鹅轻轨线,True,1.40228667724754,103.912727355403,50 PUNGGOL DRIVE OASIS LRT STATION SINGAPORE 828854
PE7,Damai,达迈,Punggol LRT,榜鹅轻轨线,True,1.40523483636955,103.90860354365401,40 PUNGGOL DRIVE DAMAI LRT STATION SINGAPORE 828855
PW1,Sam Kee,三记,Punggol LRT,榜鹅轻轨线,True,1.40961268528806,103.90483155060801,10 SENTUL CRESCENT SAM KEE LRT STATION SINGAPORE 828851
PW2,Teck Lee,德利,Punggol LRT,榜鹅轻轨线,True,1.41277089374632,103.906577622768,101 PONGGOL SEVENTEENTH AVENUE TECK LEE LRT STATION SINGAPORE 828861
PW3,Punggol Point,榜鹅坊,Punggol LRT,榜鹅轻轨线,True,1.41684852058575,103.90665079067301,81 PUNGGOL WAY PUNGGOL POINT LRT STATION SINGAPORE 828644
PW4,Samudera,山姆,Punggol LRT,榜鹅轻轨线,True,1.41590171941402,103.90215631607501,61 PUNGGOL WAY SAMUDERA LRT STATION SINGAPORE 828645
PW5,Nibong,尼蒙,Punggol LRT,榜鹅轻轨线,True,1.41187045869189,103.900313817227,41 PUNGGOL WAY NIBONG LRT STATION SINGAPORE 828862
PW6,Sumang,苏芒,Punggol LRT,榜鹅轻轨线,True,1.40845242600029,103.898558454203,31 PUNGGOL WAY SUMANG LRT STATION SINGAPORE 828863
PW7,Soo Teck,树德,Punggol LRT,榜鹅轻轨线,True,1.4053233161410001,103.89729052067301,21 PUNGGOL WAY SOO TECK LRT STATION SINGAPORE 828864
